<svg xmlns="http://www.w3.org/2000/svg" width="34.297" height="21.458" viewBox="0 0 34.297 21.458">
  <path id="Path_2161" data-name="Path 2161" d="M0,0V21.458H34.3V0ZM30.848,1.956,17.142,12.862,3.449,1.956ZM2.456,19.512V3.913l14.7,11.707,14.7-11.707v15.6Z" fill="#fff"/>
</svg>
